^C:\USERS\JGARC\SOURCE\REPOS\BATTLESHIP\BATTLESHIP\MAIN.CPP
C:\USERS\JGARC\SOURCE\REPOS\BATTLESHIP\BATTLESHIP\DEBUG\VC141.PDB
C:\USERS\JGARC\SOURCE\REPOS\BATTLESHIP\BATTLESHIP\DEBUG\VC141.IDB
C:\USERS\JGARC\SOURCE\REPOS\BATTLESHIP\BATTLESHIP\DEBUG\MAIN.OBJ
